{
  "request_url": "http://localhost:30888/api/v1/balance-sheet/",
  "data": {
    "items": [
      {
        "symbol": "AAPL",
        "fiscaldateending": "2025-06-30",
        "reportedcurrency": null,
        "totalassets": "331495000000",
        "totalcurrentassets": "122491000000",
        "totalnoncurrentassets": "209004000000",
        "totalliabilities": "265665000000",
        "totalcurrentliabilities": "141120000000",
        "totalnoncurrentliabilities": "124545000000",
        "totalshareholderequity": "65830000000",
        "cashandcashequivalentsatcarryingvalue": "36269000000",
        "cashandshortterminvestments": "36269000000",
        "inventory": "5925000000",
        "currentnetreceivables": "46835000000",
        "currentaccountspayable": "50374000000",
        "longtermdebt": null,
        "commonstock": "89806000000",
        "retainedearnings": "-17607000000",
        "commonstocksharesoutstanding": "14948179000",
        "fetched_at": "2025-08-02T18:45:06.859747",
        "total_assets_billions": 331.5,
        "market_cap_category": "Large Cap",
        "fiscal_date_str": "2025-06-30"
      },
      {
        "symbol": "ABBV",
        "fiscaldateending": "2025-06-30",
        "reportedcurrency": null,
        "totalassets": null,
        "totalcurrentassets": null,
        "totalnoncurrentassets": null,
        "totalliabilities": null,
        "totalcurrentliabilities": null,
        "totalnoncurrentliabilities": null,
        "totalshareholderequity": null,
        "cashandcashequivalentsatcarryingvalue": null,
        "cashandshortterminvestments": null,
        "inventory": null,
        "currentnetreceivables": null,
        "currentaccountspayable": null,
        "longtermdebt": null,
        "commonstock": null,
        "retainedearnings": null,
        "commonstocksharesoutstanding": "1772000000",
        "fetched_at": "2025-08-02T18:45:24.224003",
        "total_assets_billions": null,
        "market_cap_category": "Unknown",
        "fiscal_date_str": "2025-06-30"
      },
      {
        "symbol": "ABT",
        "fiscaldateending": "2025-06-30",
        "reportedcurrency": "USD",
        "totalassets": "83999000000",
        "totalcurrentassets": "24468000000",
        "totalnoncurrentassets": "59531000000",
        "totalliabilities": "33170000000",
        "totalcurrentliabilities": "13439000000",
        "totalnoncurrentliabilities": "19731000000",
        "totalshareholderequity": "50565000000",
        "cashandcashequivalentsatcarryingvalue": "6951000000",
        "cashandshortterminvestments": "6951000000",
        "inventory": "6954000000",
        "currentnetreceivables": "7972000000",
        "currentaccountspayable": "4306000000",
        "longtermdebt": "12930000000",
        "commonstock": null,
        "retainedearnings": "48467000000",
        "commonstocksharesoutstanding": "1751000000",
        "fetched_at": "2025-08-02T18:45:57.540270",
        "total_assets_billions": 84.0,
        "market_cap_category": "Mid Cap",
        "fiscal_date_str": "2025-06-30"
      },
      {
        "symbol": "ADP",
        "fiscaldateending": "2025-06-30",
        "reportedcurrency": null,
        "totalassets": "53369300000",
        "totalcurrentassets": "12266500000",
        "totalnoncurrentassets": "41102800000",
        "totalliabilities": "47181300000",
        "totalcurrentliabilities": "9935000000",
        "totalnoncurrentliabilities": "37246300000",
        "totalshareholderequity": "6188000000",
        "cashandcashequivalentsatcarryingvalue": "3347800000",
        "cashandshortterminvestments": "3347800000",
        "inventory": null,
        "currentnetreceivables": "3579100000",
        "currentaccountspayable": "169100000",
        "longtermdebt": null,
        "commonstock": "63900000",
        "retainedearnings": "25240600000",
        "commonstocksharesoutstanding": "402920400",
        "fetched_at": "2025-08-02T18:47:46.650882",
        "total_assets_billions": 53.37,
        "market_cap_category": "Mid Cap",
        "fiscal_date_str": "2025-06-30"
      },
      {
        "symbol": "AEE",
        "fiscaldateending": "2025-06-30",
        "reportedcurrency": null,
        "totalassets": "46625000000",
        "totalcurrentassets": "2474000000",
        "totalnoncurrentassets": "44151000000",
        "totalliabilities": "34182000000",
        "totalcurrentliabilities": "3087000000",
        "totalnoncurrentliabilities": "31095000000",
        "totalshareholderequity": "12314000000",
        "cashandcashequivalentsatcarryingvalue": "11000000",
        "cashandshortterminvestments": "11000000",
        "inventory": "738000000",
        "currentnetreceivables": "567000000",
        "currentaccountspayable": null,
        "longtermdebt": null,
        "commonstock": "7544000000",
        "retainedearnings": "4784000000",
        "commonstocksharesoutstanding": "271500000",
        "fetched_at": "2025-08-02T18:48:22.487265",
        "total_assets_billions": 46.62,
        "market_cap_category": "Mid Cap",
        "fiscal_date_str": "2025-06-30"
      },
      {
        "symbol": "AEP",
        "fiscaldateending": "2025-06-30",
        "reportedcurrency": "USD",
        "totalassets": "107778500000",
        "totalcurrentassets": "6321900000",
        "totalnoncurrentassets": "101456600000",
        "totalliabilities": "76759500000",
        "totalcurrentliabilities": "11443300000",
        "totalnoncurrentliabilities": "65316200000",
        "totalshareholderequity": "50600000",
        "cashandcashequivalentsatcarryingvalue": "227300000",
        "cashandshortterminvestments": "227300000",
        "inventory": "1622000000",
        "currentnetreceivables": "1134600000",
        "currentaccountspayable": "2714200000",
        "longtermdebt": "41313100000",
        "commonstock": null,
        "retainedearnings": "14896700000",
        "commonstocksharesoutstanding": "536426000",
        "fetched_at": "2025-08-02T18:48:39.822420",
        "total_assets_billions": 107.78,
        "market_cap_category": "Large Cap",
        "fiscal_date_str": "2025-06-30"
      },
      {
        "symbol": "AES",
        "fiscaldateending": "2025-06-30",
        "reportedcurrency": null,
        "totalassets": "48542000000",
        "totalcurrentassets": "6320000000",
        "totalnoncurrentassets": "42222000000",
        "totalliabilities": "40859000000",
        "totalcurrentliabilities": "7679000000",
        "totalnoncurrentliabilities": "31001000000",
        "totalshareholderequity": "3369000000",
        "cashandcashequivalentsatcarryingvalue": "1350000000",
        "cashandshortterminvestments": "1350000000",
        "inventory": "647000000",
        "currentnetreceivables": "1865000000",
        "currentaccountspayable": "1663000000",
        "longtermdebt": null,
        "commonstock": "9000000",
        "retainedearnings": "-79000000",
        "commonstocksharesoutstanding": "303921600",
        "fetched_at": "2025-08-02T18:48:57.641215",
        "total_assets_billions": 48.54,
        "market_cap_category": "Mid Cap",
        "fiscal_date_str": "2025-06-30"
      },
      {
        "symbol": "AJG",
        "fiscaldateending": "2025-06-30",
        "reportedcurrency": null,
        "totalassets": "80122600000",
        "totalcurrentassets": "57838100000",
        "totalnoncurrentassets": "22284500000",
        "totalliabilities": "57066300000",
        "totalcurrentliabilities": "42539600000",
        "totalnoncurrentliabilities": "14526700000",
        "totalshareholderequity": "23023100000",
        "cashandcashequivalentsatcarryingvalue": "14299500000",
        "cashandshortterminvestments": "14299500000",
        "inventory": null,
        "currentnetreceivables": "4739200000",
        "currentaccountspayable": null,
        "longtermdebt": null,
        "commonstock": "256400000",
        "retainedearnings": "5720700000",
        "commonstocksharesoutstanding": null,
        "fetched_at": "2025-08-02T18:50:12.051487",
        "total_assets_billions": 80.12,
        "market_cap_category": "Mid Cap",
        "fiscal_date_str": "2025-06-30"
      },
      {
        "symbol": "ALB",
        "fiscaldateending": "2025-06-30",
        "reportedcurrency": null,
        "totalassets": "17291927000",
        "totalcurrentassets": "4505187000",
        "totalnoncurrentassets": "12786740000",
        "totalliabilities": "6792943000",
        "totalcurrentliabilities": "1949784000",
        "totalnoncurrentliabilities": "4843159000",
        "totalshareholderequity": "10240526000",
        "cashandcashequivalentsatcarryingvalue": "1806829000",
        "cashandshortterminvestments": "1806829000",
        "inventory": "1640925000",
        "currentnetreceivables": "766433000",
        "currentaccountspayable": "737317000",
        "longtermdebt": null,
        "commonstock": "1177000",
        "retainedearnings": "5367257000",
        "commonstocksharesoutstanding": "117634000",
        "fetched_at": "2025-08-03T00:00:31.448735",
        "total_assets_billions": 17.29,
        "market_cap_category": "Mid Cap",
        "fiscal_date_str": "2025-06-30"
      },
      {
        "symbol": "ARE",
        "fiscaldateending": "2025-06-30",
        "reportedcurrency": "USD",
        "totalassets": "37623629000",
        "totalcurrentassets": "520545000",
        "totalnoncurrentassets": "36755500000",
        "totalliabilities": "15884626000",
        "totalcurrentliabilities": "229686000",
        "totalnoncurrentliabilities": "12931003000",
        "totalshareholderequity": "21729391000",
        "cashandcashequivalentsatcarryingvalue": "520545000",
        "cashandshortterminvestments": "520545000",
        "inventory": null,
        "currentnetreceivables": "6267000",
        "currentaccountspayable": "406957000",
        "longtermdebt": "12196107000",
        "commonstock": "1701000",
        "retainedearnings": null,
        "commonstocksharesoutstanding": "170135000",
        "fetched_at": "2025-08-05T06:00:21.754266",
        "total_assets_billions": 37.62,
        "market_cap_category": "Mid Cap",
        "fiscal_date_str": "2025-06-30"
      },
      {
        "symbol": "AVB",
        "fiscaldateending": "2025-06-30",
        "reportedcurrency": null,
        "totalassets": "21837945000",
        "totalcurrentassets": "102825000",
        "totalnoncurrentassets": null,
        "totalliabilities": "9667647000",
        "totalcurrentliabilities": null,
        "totalnoncurrentliabilities": null,
        "totalshareholderequity": "12170298000",
        "cashandcashequivalentsatcarryingvalue": "102825000",
        "cashandshortterminvestments": "102825000",
        "inventory": null,
        "currentnetreceivables": null,
        "currentaccountspayable": null,
        "longtermdebt": null,
        "commonstock": null,
        "retainedearnings": null,
        "commonstocksharesoutstanding": null,
        "fetched_at": "2025-08-05T06:01:10.222078",
        "total_assets_billions": 21.84,
        "market_cap_category": "Mid Cap",
        "fiscal_date_str": "2025-06-30"
      },
      {
        "symbol": "AVY",
        "fiscaldateending": "2025-06-30",
        "reportedcurrency": "USD",
        "totalassets": "8568200000",
        "totalcurrentassets": "3183800000",
        "totalnoncurrentassets": "5384400000",
        "totalliabilities": "6366600000",
        "totalcurrentliabilities": "3062100000",
        "totalnoncurrentliabilities": "3304500000",
        "totalshareholderequity": "2201600000",
        "cashandcashequivalentsatcarryingvalue": "215900000",
        "cashandshortterminvestments": "215900000",
        "inventory": "1026900000",
        "currentnetreceivables": "1626500000",
        "currentaccountspayable": "1307500000",
        "longtermdebt": "2628200000",
        "commonstock": "124100000",
        "retainedearnings": "5399300000",
        "commonstocksharesoutstanding": "78423200",
        "fetched_at": "2025-08-05T06:01:44.364432",
        "total_assets_billions": 8.57,
        "market_cap_category": "Small Cap",
        "fiscal_date_str": "2025-06-30"
      },
      {
        "symbol": "AWK",
        "fiscaldateending": "2025-06-30",
        "reportedcurrency": "USD",
        "totalassets": "33913000000",
        "totalcurrentassets": "1399000000",
        "totalnoncurrentassets": "32514000000",
        "totalliabilities": "19336000000",
        "totalcurrentliabilities": "3991000000",
        "totalnoncurrentliabilities": "15345000000",
        "totalshareholderequity": "10682000000",
        "cashandcashequivalentsatcarryingvalue": "94000000",
        "cashandshortterminvestments": "94000000",
        "inventory": "109000000",
        "currentnetreceivables": "573000000",
        "currentaccountspayable": "306000000",
        "longtermdebt": "12281000000",
        "commonstock": "2000000",
        "retainedearnings": "2445000000",
        "commonstocksharesoutstanding": "195000000",
        "fetched_at": "2025-08-05T06:02:04.626132",
        "total_assets_billions": 33.91,
        "market_cap_category": "Mid Cap",
        "fiscal_date_str": "2025-06-30"
      },
      {
        "symbol": "AXP",
        "fiscaldateending": "2025-06-30",
        "reportedcurrency": "USD",
        "totalassets": "295556000000",
        "totalcurrentassets": "58818000000",
        "totalnoncurrentassets": "236738000000",
        "totalliabilities": "263245000000",
        "totalcurrentliabilities": "165000000000",
        "totalnoncurrentliabilities": "98245000000",
        "totalshareholderequity": "32311000000",
        "cashandcashequivalentsatcarryingvalue": "57830000000",
        "cashandshortterminvestments": "57830000000",
        "inventory": null,
        "currentnetreceivables": "59405000000",
        "currentaccountspayable": "14121000000",
        "longtermdebt": "58202000000",
        "commonstock": "140000000",
        "retainedearnings": "24367000000",
        "commonstocksharesoutstanding": "699000000",
        "fetched_at": "2025-08-05T06:02:39.057808",
        "total_assets_billions": 295.56,
        "market_cap_category": "Large Cap",
        "fiscal_date_str": "2025-06-30"
      },
      {
        "symbol": "BA",
        "fiscaldateending": "2025-06-30",
        "reportedcurrency": "USD",
        "totalassets": "155120000000",
        "totalcurrentassets": "127301000000",
        "totalnoncurrentassets": "27819000000",
        "totalliabilities": "158416000000",
        "totalcurrentliabilities": "103376000000",
        "totalnoncurrentliabilities": "55040000000",
        "totalshareholderequity": "-3295000000",
        "cashandcashequivalentsatcarryingvalue": "7087000000",
        "cashandshortterminvestments": "7087000000",
        "inventory": "87853000000",
        "currentnetreceivables": "12467000000",
        "currentaccountspayable": "11238000000",
        "longtermdebt": "44604000000",
        "commonstock": "5061000000",
        "retainedearnings": "14542000000",
        "commonstocksharesoutstanding": "756600000",
        "fetched_at": "2025-08-05T06:03:13.258765",
        "total_assets_billions": 155.12,
        "market_cap_category": "Large Cap",
        "fiscal_date_str": "2025-06-30"
      },
      {
        "symbol": "BAC",
        "fiscaldateending": "2025-06-30",
        "reportedcurrency": "USD",
        "totalassets": "3441142000000",
        "totalcurrentassets": "721744000000",
        "totalnoncurrentassets": "2719398000000",
        "totalliabilities": "3141543000000",
        "totalcurrentliabilities": "47891000000",
        "totalnoncurrentliabilities": "3093652000000",
        "totalshareholderequity": "299599000000",
        "cashandcashequivalentsatcarryingvalue": "266011000000",
        "cashandshortterminvestments": "266011000000",
        "inventory": null,
        "currentnetreceivables": "93964000000",
        "currentaccountspayable": null,
        "longtermdebt": "313418000000",
        "commonstock": "36428000000",
        "retainedearnings": "252180000000",
        "commonstocksharesoutstanding": "7651600000",
        "fetched_at": "2025-08-05T06:03:30.775182",
        "total_assets_billions": 3441.14,
        "market_cap_category": "Large Cap",
        "fiscal_date_str": "2025-06-30"
      },
      {
        "symbol": "BAX",
        "fiscaldateending": "2025-06-30",
        "reportedcurrency": null,
        "totalassets": null,
        "totalcurrentassets": null,
        "totalnoncurrentassets": null,
        "totalliabilities": null,
        "totalcurrentliabilities": null,
        "totalnoncurrentliabilities": null,
        "totalshareholderequity": null,
        "cashandcashequivalentsatcarryingvalue": null,
        "cashandshortterminvestments": null,
        "inventory": null,
        "currentnetreceivables": null,
        "currentaccountspayable": null,
        "longtermdebt": null,
        "commonstock": null,
        "retainedearnings": null,
        "commonstocksharesoutstanding": "514000000",
        "fetched_at": "2025-08-05T06:04:09.287422",
        "total_assets_billions": null,
        "market_cap_category": "Unknown",
        "fiscal_date_str": "2025-06-30"
      },
      {
        "symbol": "BEN",
        "fiscaldateending": "2025-06-30",
        "reportedcurrency": "USD",
        "totalassets": "32552200000",
        "totalcurrentassets": "4977100000",
        "totalnoncurrentassets": "12399300000",
        "totalliabilities": "18117300000",
        "totalcurrentliabilities": "1163800000",
        "totalnoncurrentliabilities": "16953500000",
        "totalshareholderequity": "12203900000",
        "cashandcashequivalentsatcarryingvalue": "3253900000",
        "cashandshortterminvestments": "3253900000",
        "inventory": null,
        "currentnetreceivables": "1723200000",
        "currentaccountspayable": "1877100000",
        "longtermdebt": "12244300000",
        "commonstock": "51800000",
        "retainedearnings": "11610300000",
        "commonstocksharesoutstanding": "188367300",
        "fetched_at": "2025-08-05T06:05:01.369967",
        "total_assets_billions": 32.55,
        "market_cap_category": "Mid Cap",
        "fiscal_date_str": "2025-06-30"
      },
      {
        "symbol": "BG",
        "fiscaldateending": "2025-06-30",
        "reportedcurrency": "USD",
        "totalassets": "31154000000",
        "totalcurrentassets": "21445000000",
        "totalnoncurrentassets": "9709000000",
        "totalliabilities": "19198000000",
        "totalcurrentliabilities": "10384000000",
        "totalnoncurrentliabilities": "8814000000",
        "totalshareholderequity": "11895000000",
        "cashandcashequivalentsatcarryingvalue": "6790000000",
        "cashandshortterminvestments": "6790000000",
        "inventory": "8014000000",
        "currentnetreceivables": "2258000000",
        "currentaccountspayable": "2894000000",
        "longtermdebt": "7044000000",
        "commonstock": null,
        "retainedearnings": null,
        "commonstocksharesoutstanding": "136000000",
        "fetched_at": "2025-08-05T06:05:33.815744",
        "total_assets_billions": 31.15,
        "market_cap_category": "Mid Cap",
        "fiscal_date_str": "2025-06-30"
      },
      {
        "symbol": "BIIB",
        "fiscaldateending": "2025-06-30",
        "reportedcurrency": "USD",
        "totalassets": "28330200000",
        "totalcurrentassets": "7967700000",
        "totalnoncurrentassets": "20362500000",
        "totalliabilities": "10696200000",
        "totalcurrentliabilities": "3183700000",
        "totalnoncurrentliabilities": "7512500000",
        "totalshareholderequity": "17634000000",
        "cashandcashequivalentsatcarryingvalue": "2758800000",
        "cashandshortterminvestments": "2758800000",
        "inventory": "2274300000",
        "currentnetreceivables": "1624200000",
        "currentaccountspayable": "408400000",
        "longtermdebt": "6283700000",
        "commonstock": "100000",
        "retainedearnings": "20135100000",
        "commonstocksharesoutstanding": "116051200",
        "fetched_at": "2025-08-05T06:05:52.061907",
        "total_assets_billions": 28.33,
        "market_cap_category": "Mid Cap",
        "fiscal_date_str": "2025-06-30"
      }
    ],
    "total": 8136,
    "page": 1,
    "size": 20,
    "has_next": true
  }
}