{
  "items": [
    {
      "tweet_id": "1951124886761644403",
      "text": "Actually the PBMs charge not only rebates , but also insane fees.   So the brand manufacturers can sell to us for MORE than they get paid by he PBMs. So they will have MORE money for R&amp;D https://t.co/xYugLRhChN",
      "username": "mcuban",
      "display_name": "Mark Cuban",
      "created_at": "2025-08-01T03:36:37Z",
      "like_count": 132,
      "retweet_count": 20,
      "reply_count": 20,
      "tweet_url": "https://x.com/mcuban/status/1951124886761644403"
    },
    {
      "tweet_id": "1951124332220236185",
      "text": "@MysticGolf @costplusdrugs There what I spend my days doing",
      "username": "mcuban",
      "display_name": "Mark Cuban",
      "created_at": "2025-08-01T03:34:25Z",
      "like_count": 2,
      "retweet_count": 0,
      "reply_count": 1,
      "tweet_url": "https://x.com/mcuban/status/1951124332220236185"
    },
    {
      "tweet_id": "1951086414520787332",
      "text": "@brian_armstrong ₿2,509 🔥",
      "username": "saylor",
      "display_name": "Michael Saylor",
      "created_at": "2025-08-01T01:03:45Z",
      "like_count": 507,
      "retweet_count": 32,
      "reply_count": 37,
      "tweet_url": "https://x.com/saylor/status/1951086414520787332"
    },
    {
      "tweet_id": "1951082319277859202",
      "text": "@JakeSherman Interesting",
      "username": "elonmusk",
      "display_name": "Elon Musk",
      "created_at": "2025-08-01T00:47:28Z",
      "like_count": 440,
      "retweet_count": 36,
      "reply_count": 102,
      "tweet_url": "https://x.com/elonmusk/status/1951082319277859202"
    },
    {
      "tweet_id": "1951077331461873743",
      "text": "Brooklyn hackathon - come learn how to build crypto apps https://t.co/QtClUecOlB",
      "username": "brian_armstrong",
      "display_name": "Brian Armstrong",
      "created_at": "2025-08-01T00:27:39Z",
      "like_count": 189,
      "retweet_count": 18,
      "reply_count": 46,
      "tweet_url": "https://x.com/brian_armstrong/status/1951077331461873743"
    }
  ],
  "total_count": 92,
  "limit": 5,
  "offset": 0,
  "has_more": true
}
