{
  "items": [
    {
      "tweet_id": "1951082319277859202",
      "text": "@JakeSherman Interesting",
      "username": "elonmusk",
      "display_name": "Elon Musk",
      "created_at": "2025-08-01T00:47:28Z",
      "like_count": 440,
      "retweet_count": 36,
      "reply_count": 102,
      "tweet_url": "https://x.com/elonmusk/status/1951082319277859202"
    },
    {
      "tweet_id": "1951074444761506252",
      "text": "🇯🇵 https://t.co/8nzxOCgpAt",
      "username": "elonmusk",
      "display_name": "Elon Musk",
      "created_at": "2025-08-01T00:16:11Z",
      "like_count": 41520,
      "retweet_count": 4276,
      "reply_count": 2752,
      "tweet_url": "https://x.com/elonmusk/status/1951074444761506252"
    },
    {
      "tweet_id": "1951073656790208848",
      "text": "@BillyM2k The government will crush freedom",
      "username": "elonmusk",
      "display_name": "Elon Musk",
      "created_at": "2025-08-01T00:13:03Z",
      "like_count": 1395,
      "retweet_count": 142,
      "reply_count": 335,
      "tweet_url": "https://x.com/elonmusk/status/1951073656790208848"
    }
  ],
  "total_count": 10,
  "limit": 3,
  "offset": 0,
  "has_more": true
}
