{
  "request_url": "http://localhost:30888/api/v1/x-posts/",
  "data": {
    "items": [
      {
        "tweet_id": "1952183058431648244",
        "text": "RT @teslaenergy: Generate and store your own clean energy with Solar + Powerwall.",
        "username": "elonmusk",
        "display_name": "Elon Musk",
        "created_at": "2025-08-04T01:41:25Z",
        "like_count": 0,
        "retweet_count": 259,
        "reply_count": 0,
        "tweet_url": "https://x.com/elonmusk/status/1952183058431648244"
      },
      {
        "tweet_id": "1952179328734916788",
        "text": "RT @cb_doge: Grok Imagine also comes in Spicy Mode ğŸŒ¶ï¸ https://t.co/vz5Wzf3DyN",
        "username": "elonmusk",
        "display_name": "Elon Musk",
        "created_at": "2025-08-04T01:26:36Z",
        "like_count": 0,
        "retweet_count": 249,
        "reply_count": 0,
        "tweet_url": "https://x.com/elonmusk/status/1952179328734916788"
      },
      {
        "tweet_id": "1952178532794396780",
        "text": "Upgrade to Premium+ or SuperGrok to get priority access to Imagine super fast image and video generation! https://t.co/wk5jRUkIbO",
        "username": "elonmusk",
        "display_name": "Elon Musk",
        "created_at": "2025-08-04T01:23:26Z",
        "like_count": 2673,
        "retweet_count": 412,
        "reply_count": 1049,
        "tweet_url": "https://x.com/elonmusk/status/1952178532794396780"
      },
      {
        "tweet_id": "1952177713546170501",
        "text": "@shivon The graphics are great, but the tutorials are way too long",
        "username": "elonmusk",
        "display_name": "Elon Musk",
        "created_at": "2025-08-04T01:20:11Z",
        "like_count": 451,
        "retweet_count": 41,
        "reply_count": 137,
        "tweet_url": "https://x.com/elonmusk/status/1952177713546170501"
      },
      {
        "tweet_id": "1952176488167649342",
        "text": "Imagine with @Grok https://t.co/UIay5yNp97",
        "username": "elonmusk",
        "display_name": "Elon Musk",
        "created_at": "2025-08-04T01:15:19Z",
        "like_count": 8198,
        "retweet_count": 828,
        "reply_count": 2638,
        "tweet_url": "https://x.com/elonmusk/status/1952176488167649342"
      },
      {
        "tweet_id": "1952167785586741302",
        "text": "RT @Tesla: In the future, people will find it wild that manual driving was a daily task, not a weekend thrill https://t.co/EEwM1ZrF5d",
        "username": "elonmusk",
        "display_name": "Elon Musk",
        "created_at": "2025-08-04T00:40:44Z",
        "like_count": 0,
        "retweet_count": 472,
        "reply_count": 0,
        "tweet_url": "https://x.com/elonmusk/status/1952167785586741302"
      },
      {
        "tweet_id": "1952167729584320548",
        "text": "@techdevnotes We will",
        "username": "elonmusk",
        "display_name": "Elon Musk",
        "created_at": "2025-08-04T00:40:30Z",
        "like_count": 384,
        "retweet_count": 39,
        "reply_count": 112,
        "tweet_url": "https://x.com/elonmusk/status/1952167729584320548"
      },
      {
        "tweet_id": "1952166922138927284",
        "text": "@DogecoinNorway ğŸ¤¯ ğŸ† ğŸ¤£",
        "username": "elonmusk",
        "display_name": "Elon Musk",
        "created_at": "2025-08-04T00:37:18Z",
        "like_count": 365,
        "retweet_count": 40,
        "reply_count": 180,
        "tweet_url": "https://x.com/elonmusk/status/1952166922138927284"
      },
      {
        "tweet_id": "1952166507083116932",
        "text": "@DogecoinNorway Spicy ğŸ˜‚",
        "username": "elonmusk",
        "display_name": "Elon Musk",
        "created_at": "2025-08-04T00:35:39Z",
        "like_count": 310,
        "retweet_count": 42,
        "reply_count": 116,
        "tweet_url": "https://x.com/elonmusk/status/1952166507083116932"
      },
      {
        "tweet_id": "1952166368314593625",
        "text": "@DogecoinNorway ğŸ˜‚",
        "username": "elonmusk",
        "display_name": "Elon Musk",
        "created_at": "2025-08-04T00:35:06Z",
        "like_count": 202,
        "retweet_count": 23,
        "reply_count": 47,
        "tweet_url": "https://x.com/elonmusk/status/1952166368314593625"
      },
      {
        "tweet_id": "1951822239747453000",
        "text": "ğŸ¤” ğŸ˜‚ https://t.co/DZfqwLhe9y",
        "username": "elonmusk",
        "display_name": "Elon Musk",
        "created_at": "2025-08-03T01:47:39Z",
        "like_count": 3544,
        "retweet_count": 400,
        "reply_count": 852,
        "tweet_url": "https://x.com/elonmusk/status/1951822239747453000"
      },
      {
        "tweet_id": "1951822007403975115",
        "text": "@aesposito__ @iamgingertrash Iâ€™m a fan of Peter, but he is not quite modeling my mind space accurately. \n\nMaking life multiplanetary on Mars really is about preserving the light of consciousness. There is no political or personal agenda!\n\nIf someone else was doing it, that would be great, but there isnâ€™t ğŸ¤·â€â™‚ï¸",
        "username": "elonmusk",
        "display_name": "Elon Musk",
        "created_at": "2025-08-03T01:46:44Z",
        "like_count": 236,
        "retweet_count": 33,
        "reply_count": 70,
        "tweet_url": "https://x.com/elonmusk/status/1951822007403975115"
      },
      {
        "tweet_id": "1951819071223365653",
        "text": "@iamgingertrash True",
        "username": "elonmusk",
        "display_name": "Elon Musk",
        "created_at": "2025-08-03T01:35:04Z",
        "like_count": 217,
        "retweet_count": 33,
        "reply_count": 69,
        "tweet_url": "https://x.com/elonmusk/status/1951819071223365653"
      },
      {
        "tweet_id": "1951818374486659582",
        "text": "@fchollet Interesting",
        "username": "elonmusk",
        "display_name": "Elon Musk",
        "created_at": "2025-08-03T01:32:18Z",
        "like_count": 144,
        "retweet_count": 27,
        "reply_count": 19,
        "tweet_url": "https://x.com/elonmusk/status/1951818374486659582"
      },
      {
        "tweet_id": "1951815430714364395",
        "text": "@tetsuoai ğŸ”¥ğŸ”¥",
        "username": "elonmusk",
        "display_name": "Elon Musk",
        "created_at": "2025-08-03T01:20:36Z",
        "like_count": 342,
        "retweet_count": 47,
        "reply_count": 92,
        "tweet_url": "https://x.com/elonmusk/status/1951815430714364395"
      },
      {
        "tweet_id": "1951815277861355788",
        "text": "@relletreknit @willdepue ğŸ¯",
        "username": "elonmusk",
        "display_name": "Elon Musk",
        "created_at": "2025-08-03T01:19:59Z",
        "like_count": 163,
        "retweet_count": 25,
        "reply_count": 35,
        "tweet_url": "https://x.com/elonmusk/status/1951815277861355788"
      },
      {
        "tweet_id": "1951815113050317224",
        "text": "@willdepue @tszzl ğŸ’¯",
        "username": "elonmusk",
        "display_name": "Elon Musk",
        "created_at": "2025-08-03T01:19:20Z",
        "like_count": 131,
        "retweet_count": 20,
        "reply_count": 15,
        "tweet_url": "https://x.com/elonmusk/status/1951815113050317224"
      },
      {
        "tweet_id": "1951811381654958110",
        "text": "@sporadicalia ğŸ’¯",
        "username": "elonmusk",
        "display_name": "Elon Musk",
        "created_at": "2025-08-03T01:04:30Z",
        "like_count": 284,
        "retweet_count": 29,
        "reply_count": 58,
        "tweet_url": "https://x.com/elonmusk/status/1951811381654958110"
      },
      {
        "tweet_id": "1951810917358067714",
        "text": "@Andercot When I heard that watching the original Blade Runner, I thought it sounded awesome ğŸ˜",
        "username": "elonmusk",
        "display_name": "Elon Musk",
        "created_at": "2025-08-03T01:02:40Z",
        "like_count": 357,
        "retweet_count": 47,
        "reply_count": 66,
        "tweet_url": "https://x.com/elonmusk/status/1951810917358067714"
      },
      {
        "tweet_id": "1951801385265311925",
        "text": "RT @cb_doge: Grok Imagine can turn your profile picture into a video. ğŸª„ https://t.co/1AqzMgHkaR",
        "username": "elonmusk",
        "display_name": "Elon Musk",
        "created_at": "2025-08-03T00:24:47Z",
        "like_count": 0,
        "retweet_count": 329,
        "reply_count": 0,
        "tweet_url": "https://x.com/elonmusk/status/1951801385265311925"
      }
    ],
    "total_count": 189,
    "limit": 20,
    "offset": 0,
    "has_more": true
  }
}